…
Add time period column & recalculate summary dist metrics: summarize
based on the half-century periods the author was born. The question here
is: do authors born in quite distant times uses different distances when
from_to appears?

    # A tibble: 30 × 5
       lang_t       dist_mean dist_median third_quant number_formulas
       <chr>            <dbl>       <dbl>       <dbl>           <int>
     1 cs 1750—1799      916.        862.       1388.              31
     2 cs 1800—1849      956.        350.       1019.             150
     3 cs 1850—1899     1078.        449.       1305.             160
     4 de 1650—1699      421.        421.        421.               1
     5 de 1700—1749     3986.       2805.       4576.               9
     6 de 1750—1799     1929.        639.       1800.              12
     7 de 1800—1849     1266.        766.       1302.              28
     8 de 1850—1899     2231.        985.       1093.              12
     9 en 1650—1699     1519.       1519.       2046.               2
    10 en 1700—1749     2846.        701.       2386.               9
    # ℹ 20 more rows
…
For longer distances: everyone except EN and FR are usually below the 5k
distances even for longer ones? ru is somewhere inbetween

### Types: river –\> mountain

#### Overview

total

    # A tibble: 33 × 2
       type_pair                 n
       <chr>                 <int>
     1 default --> default     673
     2 river --> river         105
     3 river --> default        72
     4 mountain --> mountain    63
     5 default --> country      58
     6 default --> river        58
     7 mountain --> default     44
     8 country --> default      42
     9 default --> mountain     34
    10 country --> country      30
    # ℹ 23 more rows
…
Similar picture to the above: younger literatures are more about closer
distances (cs % short – 72%? sl — 87%), while others are more equal to
50/50

    # A tibble: 33 × 3
       type_pair             short  long
       <chr>                 <int> <int>
     1 default --> default       1     1
     2 mountain --> mountain     2     9
     3 river --> default         3     4
     4 river --> river           4     2
     5 default --> river         5     6
     6 mountain --> default      6     8
     7 default --> mountain      7    10
     8 country --> default       8     5
     9 default --> country       9     3
    10 country --> country      10     7
    # ℹ 23 more rows
…
#### longer vs shorter distances

``` r
formulas_d %>% 
  mutate(type_pair = paste0(from_type, " --> ", to_type), 
         dist_type = ifelse(dist_haversine > 1000, "long", "short")) %>% 
  group_by(lang, dist_type) %>% 
  count(type_pair, sort = T) %>% 
  slice_max(order_by = n, n = 5) %>% 
  ungroup() 
```

    # A tibble: 70 × 4
       lang  dist_type type_pair                 n
       <chr> <chr>     <chr>                 <int>
     1 cs    long      river --> river          16
     2 cs    long      default --> default      14
     3 cs    long      river --> default        11
     4 cs    long      mountain --> mountain     8
     5 cs    long      default --> country       6
     6 cs    long      default --> sea           6
     7 cs    long      mountain --> default      6
     8 cs    short     default --> default     114
     9 cs    short     mountain --> mountain    42
    10 cs    short     mountain --> default     13
    # ℹ 60 more rows
…
